{
  "images" : [
    {
      "idiom" : "universal",
      "filename" : "icon_alternate_mobile_number.png",
      "scale" : "1x"
    },
    {
      "idiom" : "universal",
      "filename" : "icon_alternate_mobile_number@2x.png",
      "scale" : "2x"
    },
    {
      "idiom" : "universal",
      "filename" : "icon_alternate_mobile_number@3x.png",
      "scale" : "3x"
    }
  ],
  "info" : {
    "version" : 1,
    "author" : "xcode"
  }
}